<?xml version="1.0" encoding="UTF-8"?>
<glyph name="floorright" format="1">
  <advance width="346"/>
  <outline>
    <contour>
      <point x="226" y="634" type="line"/>
      <point x="106" y="26" type="line"/>
      <point x="12" y="26" type="line"/>
      <point x="-4" y="-58" type="line"/>
      <point x="208" y="-58" type="line"/>
      <point x="346" y="634" type="line"/>
    </contour>
  </outline>
  <lib>
    <dict>
      <key>com.typemytype.robofont.layerData</key>
      <dict>
      </dict>
    </dict>
  </lib>
</glyph>
