<?xml version="1.0" encoding="UTF-8"?>
<glyph name="ccaron" format="1">
  <advance width="472"/>
  <outline>
    <component base="c"/>
    <component base="caroncmb" xOffset="295"/>
  </outline>
  <lib>
    <dict>
      <key>com.typemytype.robofont.layerData</key>
      <dict>
      </dict>
      <key>com.typemytype.robofont.mark</key>
      <array>
        <real>0.30000000000000004</real>
        <integer>1</integer>
        <real>0.5470588235294118</real>
        <integer>1</integer>
      </array>
    </dict>
  </lib>
</glyph>
